@header{

#include <sstream>
#include <utility>
#include "clang/AST/AST.h"
#include "clang/AST/RecursiveASTVisitor.h"
#include "clang/Frontend/CompilerInstance.h"
#include "llvm/Support/raw_ostream.h"
#include "CsvWriter.h"
#include <unordered_set>
#include <unordered_map>
#include <boost/filesystem/operations.hpp>
#include <boost/filesystem/fstream.hpp>

using namespace std;
using namespace clang;
using namespace llvm;
using namespace boost;

typedef boost::filesystem::ofstream boost_ofstream;
typedef boost::filesystem::ifstream boost_ifstream;

bool isStringLiteral(string* s){
  size_t len = s->length();
  return (*s)[0] == '\"' && (*s)[len-1] == '\"';
}

bool isStringLiteral(StringRef s){
  size_t len = s.size();
  return s[0] == '\"' && s[len-1] == '\"';
}

typedef long long integer;

struct UInt { 
  integer val; 
  
  UInt(integer v) 
  : val(v) {} 

  UInt() 
  : val(0) {}

};

integer hashValue(const char* s) {
  integer A = 54059, B = 76963, h = 31;
  while (*s) {
    h = (h * A) ^ (s[0] * B);
    s++;
  }
  return h;
}

string getBasename(string* path) {
  size_t pos = path->find_last_of("/");
  return path->substr(pos == string::npos ? 0 : pos + 1, path->size());
}

string clearFromNL(string s) {
  for(int i = 0, end = s.size() ; i < end ; i++)
    if (s[i] == '\n') s[i] = '@';
  return s;
}

string escapeForCSV(string s) {
  stringstream toReturn;
  for(int i = 0, end = s.size() ; i < end; i++) {
    if (s[i] == '\n' || s[i] == '\t' || s[i] == '\r' ) toReturn << '@';
    else if (s[i] == ',') toReturn << "\\,";
    else if (s[i] == '"') toReturn << "\\\"";
    else if (s[i] == 0) toReturn << '@';
    else toReturn << s[i];
  }
  return toReturn.str();  
}

string truncate(string s) {
  if (s.length() < 1002) return s;
  if (s[0] == '"') {
    return s.substr(0, 1000) + '"';
  } else {
    return s.substr(0, 1000);
  }
}

/*
 * Generic Iterator support for cases when
 * we don't have iteration support from Clang
 */
template <typename T1, typename T2> struct Function {
  virtual int size() = 0;
  virtual T1 get(int) = 0;
  virtual ~Function() { }
};

template <typename T1, typename T2>
struct GeneralIteratorWrap {
  std::vector<T1> vec;

  GeneralIteratorWrap (Function<T1, T2> * f) {
    int s = f->size();
    for (int i = 0 ; i < s ; i++)
      vec.push_back( f->get(i) );
    delete f;
  }
};


struct CatchHandlerFunc : public Function<CXXCatchStmt*, CXXTryStmt*> {
  CXXTryStmt* S;
  CatchHandlerFunc( CXXTryStmt* _S ) : S(_S) { }

  int size() { return S->getNumHandlers(); }
  CXXCatchStmt* get(int i) { return S->getHandler(i); }
};

typedef GeneralIteratorWrap<CXXCatchStmt *, CXXTryStmt *> HandlerWrap;

}

@members{

const ASTContext* Context;
const SourceManager& SrcManager;
FileManager& FManager;
CsvWriter* writer;

bool shouldVisitImplicitCode() { return true; }
bool shouldVisitTemplateInstantiations() { return true; }

unordered_set<integer> exploredDecls;
boost_ofstream* exploredDeclsFile;

unordered_set<integer> exploredStmts;
boost_ofstream* exploredStmtsFile;

unordered_set<integer> exploredTypes;
boost_ofstream* exploredTypesFile;
    
ClangAst(const ASTContext* Context, CsvWriter* writer)
: Context(Context), SrcManager(Context->getSourceManager()), 
  FManager(SrcManager.getFileManager()), writer(writer)
{ 
  const std::string outDir = writer->getOutDir();
  const std::string exploredDeclsFileName = outDir + "/.exploredDecls";
  const std::string exploredStmtsFileName = outDir + "/.exploredStmts";
  const std::string exploredTypesFileName = outDir + "/.exploredTypes";

  exploredDeclsFile = new boost_ofstream(exploredDeclsFileName, ios_base::app);
  exploredStmtsFile = new boost_ofstream(exploredStmtsFileName, ios_base::app);
  exploredTypesFile = new boost_ofstream(exploredTypesFileName, ios_base::app);

  boost_ifstream exploredDeclsFileIn(exploredDeclsFileName);
  integer id;

   while(exploredDeclsFileIn >> id){
     exploredDecls.insert(id);
   }

   boost_ifstream exploredStmtsFileIn(exploredStmtsFileName);
   while(exploredStmtsFileIn >> id){
     exploredStmts.insert(id);
   }

   boost_ifstream exploredTypesFileIn(exploredTypesFileName);
   while(exploredTypesFileIn >> id){
     exploredTypes.insert(id);
   }
}

~ClangAst(){
  delete exploredDeclsFile;
  delete exploredStmtsFile;
  delete exploredTypesFile;
}

bool TraverseDecl(Decl* D);
bool TraverseStmt(Stmt* S);
bool TraverseType(QualType T);

struct Location {
  enum LocationPos {BEGIN, END};
  const FileEntry* filename;
  string           loc;

  Location(const FileEntry* FE, string v) : filename(FE), loc(v) {}
};

Location resolveLocation(PresumedLoc loc, Location::LocationPos pos, const FileEntry* FE){
  if ( loc.isInvalid() ) return Location( getInvalidFileEntry(), "<invalid loc>" );
  
  string lineCol = toString(loc.getLine()) +":"+ toString(loc.getColumn());

  return Location( FE, lineCol );
}

/*
 * IMPORTANT: the second argument of getPresumedLoc is set to false,
 * beacause if it's not it gets affected by the line directives (#line "foo")
 */
Location getSourceLocation(Location::LocationPos pos, const Decl* Declaration) {
  PresumedLoc loc = (pos == Location::BEGIN) ?
     SrcManager.getPresumedLoc( Declaration->getLocStart(), false ) :
     SrcManager.getPresumedLoc( Declaration->getLocEnd(), false );

  return resolveLocation(loc, pos, getSourceFile(loc));
}

Location getSourceLocation(Location::LocationPos pos, const Stmt* Statement) {
  PresumedLoc loc = (pos == Location::BEGIN) ?
    SrcManager.getPresumedLoc( Statement->getLocStart(), false ) :
    SrcManager.getPresumedLoc( Statement->getLocEnd(), false );

  return resolveLocation(loc, pos, getSourceFile(loc));
}

Location getSourceLocation(Location::LocationPos pos, SourceRange srcRange){
  PresumedLoc loc = (pos == Location::BEGIN) ?
    SrcManager.getPresumedLoc( srcRange.getBegin(), false ) : 
    SrcManager.getPresumedLoc( srcRange.getEnd(), false );

  return resolveLocation(loc, pos, getSourceFile(loc));
}

const FileEntry* getSourceFile(PresumedLoc loc) {
  if (loc.isInvalid()) return getInvalidFileEntry();
  return FManager.getFile( loc.getFilename() );
}

const FileEntry* getInvalidFileEntry() {
  return FManager.getVirtualFile( "/<invalid file>", 0, 0 );
}

const FileEntry* isIncludedFrom(const FileEntry* F) {
  FileID FI = SrcManager.translateFile(F);
  SourceLocation loc = SrcManager.getIncludeLoc(FI);
  if (loc.isInvalid()) return NULL;
  return FManager.getFile( SrcManager.getFilename(loc) );
}

string getAbsoluteFilepath(const FileEntry* FEntry) {
  string name = FEntry->getName();
  return FManager.getCanonicalName( FEntry->getDir() ).str() + "/" + getBasename( &name );
}

string getAbsoluteFilepath(const DirectoryEntry* DEntry) {
  return FManager.getCanonicalName( DEntry );
}

string clearPath(SourceLocation loc) {
  string s1 = loc.printToString(SrcManager);
  size_t pos = s1.find_first_of(":");
  string s2 = s1.substr(0, pos);
  string s3 = pos == string::npos ? "" : s1.substr(pos, s1.size());

  if(!loc.isFileID() || loc.isInvalid() || s2 == "<built-in>" || s2 == "<scratch space>") return s1;

  return getAbsoluteFilepath( SrcManager.getFileEntryForID(SrcManager.getFileID(loc)) ) + s3;
}

string getSourceString(const Decl* Declaration) {
  string s;
  raw_string_ostream rv(s);
  Declaration->print(rv);
  return rv.str();
}

string getSourceString(const Stmt* Statement) {
  string s;
  raw_string_ostream rv(s);
  Statement->printPretty(rv, NULL, Context->getPrintingPolicy());
  return rv.str();
}

string getStringForHash(const Decl* Declaration) {
  if (Declaration == NULL) return "";
  ostringstream rv;
  const FunctionDecl* FD = dyn_cast<const FunctionDecl>(Declaration);
  const VarDecl* VD = dyn_cast<const VarDecl>(Declaration);
  const ClassTemplateSpecializationDecl* D3 = dyn_cast<const ClassTemplateSpecializationDecl>(Declaration);

  if (( FD && FD->getStorageClass() == SC_Static ) ||
      ( VD && VD->getStorageClass() == SC_Static && !VD->isLocalVarDecl() )) {
    std::pair<FileID, unsigned> p = SrcManager.getDecomposedIncludedLoc( SrcManager.getFileID( SrcManager.getSpellingLoc( Declaration->getLocStart() ) ) );
    if(!p.first.isInvalid())
	rv << toString(p.second) << ":" << SrcManager.getFileEntryForID( p.first )->getName();
  }
  /* Differentiate between different instantiations of a common template declaration */
  if ( D3 ) {
    for (llvm::ArrayRef<TemplateArgument>::iterator i = D3->getTemplateArgs().asArray().begin(),
         e = D3->getTemplateArgs().asArray().end() ; i != e ; i++)
      rv << getUID( &(*i) ).val;
  }
  
  /* Pretty cool hack to avoid generic implementations
   * in different contexts (both lexical and semantic) :)
   */
  const DeclContext *LecCtx, *SemCtx;
  const TranslationUnitDecl * TrUnit = Declaration->getTranslationUnitDecl();

  if((LecCtx = Declaration->getLexicalDeclContext()) != NULL){
    const Decl * LexicalCtxDecl = dyn_cast<Decl>(LecCtx);
    if(LexicalCtxDecl != TrUnit &&
       dyn_cast<LinkageSpecDecl>(LexicalCtxDecl) == NULL &&
       dyn_cast<NamespaceDecl>(LexicalCtxDecl) == NULL)
      rv << getUID(LexicalCtxDecl).val;
  }

  if((SemCtx = Declaration->getDeclContext()) != NULL && SemCtx != LecCtx){
    const Decl * SemCtxDecl = dyn_cast<Decl>(SemCtx);
    if(SemCtx != TrUnit &&
       dyn_cast<LinkageSpecDecl>(SemCtxDecl) == NULL &&
       dyn_cast<NamespaceDecl>(SemCtxDecl) == NULL)
      rv << getUID(SemCtxDecl).val;
  }

  Location begin = getSourceLocation(Location::BEGIN, Declaration);

  rv << getSourceString(Declaration) << Declaration->getDeclKindName() <<
      	getAbsoluteFilepath(begin.filename) << begin.loc <<
      	getSourceLocation(Location::END, Declaration).loc;

  return rv.str();
}

string getStringForHash(const Stmt* Statement) {
  ostringstream rv;
  const CastExpr* E = dyn_cast_or_null<const CastExpr>(Statement);
  const CXXDefaultArgExpr* E2 = dyn_cast_or_null<const CXXDefaultArgExpr>(Statement);
  const CXXBindTemporaryExpr* E3 = dyn_cast_or_null<const CXXBindTemporaryExpr>(Statement);

  if (E) rv << E->getCastKind();
  else if (E2) rv << E2->getUsedLocation().printToString( SrcManager );
  else if (E3 && dyn_cast<const CXXTemporaryObjectExpr>(E3->getSubExpr())) rv << "SubExpr==CXXTemporaryObjectExpr";
  
  Location begin = getSourceLocation(Location::BEGIN, Statement);

  rv << getSourceString(Statement) << Statement->getStmtClassName() <<
      	getAbsoluteFilepath(begin.filename) << begin.loc <<
      	getSourceLocation(Location::END, Statement).loc;

  return rv.str();
}

unordered_map<const Decl*, UInt> declUIDCache;

UInt getUID(const Decl* Declaration) {
  if(declUIDCache.find(Declaration) != declUIDCache.end())
    return declUIDCache[Declaration];
  string s = getStringForHash(Declaration);
  UInt rv = hashValue(s.c_str());
  declUIDCache[Declaration] = rv;
  return rv;
}

unordered_map<const Stmt*, UInt> stmtUIDCache;

UInt getUID(const Stmt* Statement) {
  if (Statement == NULL) return hashValue("<NULL>");
  if(stmtUIDCache.find(Statement) != stmtUIDCache.end())
    return stmtUIDCache[Statement];
  UInt rv = hashValue( getStringForHash(Statement).c_str() );
  stmtUIDCache[Statement] = rv;
  return rv;
}

UInt getUID(const NestedNameSpecifier* Spec) {
  if (Spec == NULL) return hashValue("<NULL>");
  string s;
  raw_string_ostream rv(s);
  Spec->print(rv, Context->getPrintingPolicy());

  if ( Spec->getKind() == NestedNameSpecifier::Identifier )
    rv << Spec->getAsIdentifier()->getNameStart();
  else if ( Spec->getKind() == NestedNameSpecifier::Namespace )
    rv << getUID( Spec->getAsNamespace() ).val;
  else if ( Spec->getKind() == NestedNameSpecifier::NamespaceAlias )
    rv << getUID( Spec->getAsNamespaceAlias() ).val;
  else if ( Spec->getKind() == NestedNameSpecifier::TypeSpec ||
              Spec->getKind() == NestedNameSpecifier::TypeSpecWithTemplate )
    rv << getUID( Spec->getAsType() ).val;
  else if ( Spec->getKind() == NestedNameSpecifier::Global )
    rv << "<Global Specifier>";
  
  return hashValue( rv.str().c_str() );
}

/*
 * Additional information about certain kind of types
 * in order to make a unique string and hash it.
 * Note: must be used for both Type and QualType.
 */
//TODO: Replace getStringForHash with getUID
string getSaltForType(const Type* Tp){
  if(Tp == NULL || Tp->isCanonicalUnqualified())
    return "";
  
  Type::TypeClass _class = Tp->getTypeClass();
  ostringstream rv;
  rv << Tp->getTypeClassName();
  switch(_class){
  case Type::ConstantArray:
  case Type::DependentSizedArray:
  case Type::VariableArray:
    if(const ArrayType *ArTp = cast<ArrayType>(Tp)){
      rv << getSaltForType(ArTp->getElementType().getTypePtr());
    }
  break;
  case Type::Attributed:
    if(const AttributedType *AtrType = cast<AttributedType>(Tp)){
      rv << getSaltForType(AtrType->getModifiedType().getTypePtr());
    }
  break;
  case Type::Complex:
    if(const ComplexType* CType = cast<ComplexType>(Tp)){
      /*
       * Probably useless, but I am going to keep the call
       * (at least until we test types)
       */
      rv << getSaltForType(CType->getElementType().getTypePtr());
    }
  break;
  case Type::Decayed:
    if(const DecayedType* DType = cast<DecayedType>(Tp)){
      const Type* decType = DType->getDecayedType().getTypePtr();
      rv << getSaltForType(decType);
      rv << getSaltForType(DType->getOriginalType().getTypePtr());
      if(cast<PointerType>(decType))
	rv << getSaltForType(DType->getPointeeType().getTypePtr());
    }
    break;
  case Type::DependentSizedExtVector:
    if(const DependentSizedExtVectorType* VecType = cast<DependentSizedExtVectorType>(Tp)){
      rv << getSaltForType(VecType->getElementType().getTypePtr());
    }
  break;
  case Type::FunctionProto:
    if(const FunctionProtoType* FunT = cast<FunctionProtoType>(Tp)){
      //TODO: add Exceptions
      FunctionProtoType::param_type_iterator end = FunT->param_type_end();
      for(FunctionProtoType::param_type_iterator it = FunT->param_type_begin() ; it != end ; it++){
        rv << getSaltForType(it->getTypePtr());
      }
    }
  case Type::FunctionNoProto:
    if(const FunctionType* FunT = cast<FunctionType>(Tp)){
      rv << getSaltForType(FunT->getReturnType().getTypePtr());
    }
    break;
  case Type::InjectedClassName:
    if(const InjectedClassNameType* InjTp = cast<InjectedClassNameType>(Tp)){
      rv << getSaltForType(InjTp->getInjectedSpecializationType().getTypePtr());
      //probably needs the declaration too
    }
    break;
  case Type::MemberPointer:
    if(const MemberPointerType* MembTp = cast<MemberPointerType>(Tp)){
      rv << getSaltForType(MembTp->getPointeeType().getTypePtr());
    }
    break;
  case Type::Paren:
    if(const ParenType* PTp = cast<ParenType>(Tp)){
      rv << getSaltForType(PTp->getInnerType().getTypePtr());
    }
    break;
  case Type::Pointer:
    if(const PointerType* PTp = cast<PointerType>(Tp)){
      rv << getSaltForType(PTp->getPointeeType().getTypePtr());
    }
    break;
  case Type::LValueReference:
  case Type::RValueReference:
    if(const ReferenceType* RTp = cast<ReferenceType>(Tp)){
      rv << getSaltForType(RTp->getPointeeTypeAsWritten().getTypePtr());
    }
    break;
  case Type::Record:
  case Type::Enum:
    if(const TagType* TTp = cast<TagType>(Tp)){
      rv << getUID(TTp->getDecl()).val;
    }
    break;
  case Type::TemplateSpecialization:
    if(const TemplateSpecializationType* TemplSpec = cast<TemplateSpecializationType>(Tp)){
      rv << toString(getUID(TemplSpec->getTemplateName()));
      TemplateSpecializationType::iterator end = TemplSpec->end();
      for(TemplateSpecializationType::iterator it = TemplSpec->begin() ; it != end ; it++){
        rv << toString(getUID(it));
      }
    }
    break;
  case Type::TemplateTypeParm:
    if(const TemplateTypeParmType*  TemplParm = cast<TemplateTypeParmType>(Tp)){
      rv << getStringForHash(TemplParm->getDecl());
    }
    break;
  case Type::Typedef:
    if(const TypedefType* TdefTp = cast<TypedefType>(Tp)){
      rv << getStringForHash(TdefTp->getDecl());
    }
    break;
  //TODO: See TypeOfExpr (gcc extension)
  case Type::TypeOf:
    if(const TypeOfType* TypeOf = cast<TypeOfType>(Tp)){
      rv << getSaltForType(TypeOf->getUnderlyingType().getTypePtr());
    }
    break;
  case Type::DependentName:
    if(const DependentNameType* DepTp = cast<DependentNameType>(Tp)){
      rv << getUID(DepTp->getQualifier()).val;
      //REVIEW: Do we also need the identifier                                                                                                        
    }
    break;
  case Type::DependentTemplateSpecialization:
    if(const DependentTemplateSpecializationType* DepSpec = cast<DependentTemplateSpecializationType>(Tp)){
      rv << getUID(DepSpec->getQualifier()).val;
      DependentTemplateSpecializationType::iterator it, end = DepSpec->end();
      for(it = DepSpec->begin() ; it != end ; it++){
        rv << getUID(it).val;
      }
    }
    break;
  case Type::Elaborated:
    if(const ElaboratedType* ElTp = cast<ElaboratedType>(Tp)){
      rv << getSaltForType(ElTp->getNamedType().getTypePtr());
    }
    break;
  case Type::UnaryTransform:
    if(const UnaryTransformType* UnTr = cast<UnaryTransformType>(Tp)){
      rv << getSaltForType(UnTr->getUnderlyingType().getTypePtr());
      rv << getSaltForType(UnTr->getBaseType().getTypePtr());
    }
    break;
  case Type::UnresolvedUsing:
    if(const UnresolvedUsingType* UnrTp = cast<UnresolvedUsingType>(Tp)){
      rv << getStringForHash(UnrTp->getDecl());
    }
    break;
  case Type::Vector:
    if(const VectorType* VecTp = cast<VectorType>(Tp)){
      rv << getSaltForType(VecTp->getElementType().getTypePtr());
    }
    break;
  default:
    rv << "";
    break;
  }

  return rv.str();

}

string getAsString(const Type* Tp){

  string buffer;
  QualType::getAsStringInternal(Tp, Qualifiers(), buffer, Context->getPrintingPolicy());
  return buffer;
}


unordered_map<const Type*, UInt> typeUIDCache;
/*
 * REVIEW: Is it a good idea to put the uids directly
 * to other strings that we hash?
 */
UInt getUID(const Type* Tp){
  if (Tp == NULL) return 0;
  if(typeUIDCache.find(Tp) != typeUIDCache.end())
    return typeUIDCache[Tp];
  ostringstream idStr; 
  idStr << getAsString(Tp);
  idStr << getSaltForType(Tp);
  UInt rv = hashValue(idStr.str().c_str());
  typeUIDCache[Tp] = rv;
  return rv;
}

UInt getUID(const QualType QType){
  ostringstream idStr;
  idStr << QType.getAsString(Context->getPrintingPolicy());
  idStr << getUID(QType.getTypePtrOrNull()).val;
  return hashValue(idStr.str().c_str());
}

UInt getUID(const TemplateArgument * TemplArg){
  
  switch(TemplArg->getKind()){
  case TemplateArgument::Null:
    return hashValue("NULL");
  case TemplateArgument::Type:
    return getUID(TemplArg->getAsType());
  case TemplateArgument::Declaration:
    return getUID(TemplArg->getAsDecl());
  case TemplateArgument::NullPtr:
    return hashValue("NULL");
  case TemplateArgument::Integral:
    return hashValue(toString(TemplArg->getAsIntegral()).c_str());
  case TemplateArgument::Template:
  case TemplateArgument::TemplateExpansion:
    return hashValue(toString(TemplArg->getAsTemplateOrTemplatePattern()).c_str());
  case TemplateArgument::Expression:
    return getUID(TemplArg->getAsExpr());
  default:
    /*
     * TODO: Expression,
     *       Pack
     */
    return hashValue("");
  }
}

UInt getUID(const DependentTemplateName *depName){

  string s;
  raw_string_ostream rv(s);

  rv << getUID(depName->getQualifier()).val;

  if(depName->isIdentifier()){
    rv << depName->getIdentifier()->getName();
  }
  else{
    rv << depName->getOperator();
  }

  return hashValue(rv.str().c_str());

}

UInt getUID(const QualifiedTemplateName *qualTempName){

  string s;
  raw_string_ostream rv(s);

  rv << getUID(qualTempName->getQualifier()).val;
  rv << getUID(qualTempName->getDecl()).val;

  return hashValue(rv.str().c_str());

}

UInt getUID(TemplateName tempName){

  string s;
  raw_string_ostream rv(s);

  TemplateName::NameKind kind = tempName.getKind();

  switch(kind){
  case TemplateName::OverloadedTemplate:{
    OverloadedTemplateStorage * overloadedTempl = tempName.getAsOverloadedTemplate();
    OverloadedTemplateStorage::iterator end = overloadedTempl->end(), it;
    for(it = overloadedTempl->begin() ; it != end ; it++){
      rv << getUID(*it).val;
    }
    break;
  }
  case TemplateName::QualifiedTemplate:
    rv << getUID(tempName.getAsQualifiedTemplateName()).val;
    break;
  case TemplateName::DependentTemplate:
    rv << getUID(tempName.getAsDependentTemplateName()).val;
    break;
  case TemplateName::SubstTemplateTemplateParm:
    rv << getUID(tempName.getAsSubstTemplateTemplateParm()).val;
    break;
  default:
    /*
     * TODO: SubstTemplateTemplateParmPackStorage
     */
    rv << "";
    break;
  }

  return hashValue(rv.str().c_str());
}

UInt getUID(const SubstTemplateTemplateParmStorage * tempParmStor){

  string s;
  raw_string_ostream rv(s);

  rv << getUID(tempParmStor->getParameter()).val;
  rv << getUID(tempParmStor->getReplacement()).val;

  return hashValue(rv.str().c_str());
}

string getKind(const Decl* Declaration) {
  return string(Declaration->getDeclKindName()) + "Decl";
}

string getLanguage(const LinkageSpecDecl* D) {
    return D->getLanguage() == LinkageSpecDecl::lang_c ? "C" : "CXX";
}

string getQName(const NamedDecl* ND) {
    string qn = ND->getQualifiedNameAsString();
    return qn == "" ? "<anonymous>" : qn;
}

string getName(const NamedDecl* ND) {
    string n = ND->getNameAsString();
    return n == "" ? "<anonymous>" : n;
}


//toString functions

string toString(string s){
  const string delim = writer->getDelim();
  ostringstream rv;
  if(!isStringLiteral(&s) && s.find(delim) != string::npos){
    rv << string("\"") << s << string("\"");
  }
  else{
    rv << s;
  }
  return rv.str();
}

string toString(StringRef ref){ 
  const string delim = writer->getDelim();
  string str = ref.str();
  ostringstream rv;
  if(!isStringLiteral(&str) && str.find(delim) != string::npos){
    rv << string("\"") << str << string("\"");
  }
  else{
    rv << str;
  }
  return rv.str();
}

static string toString(int i) {
  ostringstream rv;
  rv << i;
  return rv.str();
}

static string toString(UInt i) {
  ostringstream rv;
  rv << i.val;
  return rv.str();
}

static string toString(llvm::APSInt i) {
  ostringstream rv;
  rv << i.toString(10);
  return rv.str();
}

static string toString(llvm::APInt i){
  ostringstream rv;
  rv << i.toString(10, true);
  return rv.str();
}

}

